<?xml version="1.0" encoding="UTF-8"?>
<svg width="24px" height="24px" viewBox="0 0 24 24" version="1.1" xmlns="http://www.w3.org/2000/svg" xmlns:xlink="http://www.w3.org/1999/xlink">
    <!-- Generator: Sketch 53.2 (72643) - https://sketchapp.com -->
    <title>btn_drop_menu_default</title>
    <desc>Created with Sketch.</desc>
    <g id="spec" stroke="none" stroke-width="1" fill="none" fill-rule="evenodd">
        <g id="Artboard" transform="translate(-1610.000000, -1065.000000)">
            <g id="btn_drop_menu_default" transform="translate(1610.000000, 1065.000000)">
                <rect id="Rectangle-Copy-77" fill="#9B9B9B" x="0" y="0" width="24" height="24" rx="2"></rect>
                <polygon id="Triangle-Copy-2" fill="#000000" transform="translate(12.000000, 13.000000) rotate(-180.000000) translate(-12.000000, -13.000000) " points="12 9 18 17 6 17"></polygon>
            </g>
        </g>
    </g>
</svg>