<?xml version="1.0" encoding="UTF-8"?>
<svg width="48px" height="48px" viewBox="0 0 48 48" version="1.1" xmlns="http://www.w3.org/2000/svg" xmlns:xlink="http://www.w3.org/1999/xlink">
    <!-- Generator: Sketch 53.2 (72643) - https://sketchapp.com -->
    <title>btn_capture_default</title>
    <desc>Created with Sketch.</desc>
    <g id="spec" stroke="none" stroke-width="1" fill="none" fill-rule="evenodd">
        <g id="Artboard" transform="translate(-765.000000, -72.000000)">
            <g id="btn_capture_default" transform="translate(765.000000, 72.000000)">
                <rect id="Rectangle-Copy-50" fill="#000000" fill-rule="nonzero" opacity="0.1" x="0" y="0" width="48" height="48" rx="2"></rect>
                <g id="Camera_icon-Copy-2" transform="translate(11.000000, 14.000000)" fill="#111111">
                    <path d="M12.9817,7.5551 C10.7997,7.5551 9.0307,9.3241 9.0307,11.5041 C9.0307,13.6861 10.7997,15.4531 12.9817,15.4531 C15.1647,15.4531 16.9327,13.6861 16.9327,11.5041 C16.9327,9.3241 15.1647,7.5551 12.9817,7.5551" id="Fill-1"></path>
                    <path d="M12.9817,17.7103 C9.5527,17.7103 6.7727,14.9323 6.7727,11.5043 C6.7727,8.0773 9.5527,5.2993 12.9817,5.2993 C16.4107,5.2993 19.1907,8.0773 19.1907,11.5043 C19.1907,14.9323 16.4107,17.7103 12.9817,17.7103 M23.1417,3.6063 L20.7327,3.6063 C20.1277,3.6063 19.5687,3.2833 19.2657,2.7603 C18.8977,2.1223 18.5297,1.4833 18.1607,0.8463 C17.8577,0.3223 17.2987,0.0003 16.6947,0.0003 L9.2697,0.0003 C8.6647,0.0003 8.1057,0.3223 7.8027,0.8463 C7.4347,1.4833 7.0657,2.1223 6.6977,2.7603 C6.3947,3.2833 5.8357,3.6063 5.2307,3.6063 L2.8227,3.6063 C1.2637,3.6063 0.0007,4.8693 0.0007,6.4273 L0.0007,17.7103 C0.0007,19.2683 1.2637,20.5313 2.8227,20.5313 L23.1417,20.5313 C24.7007,20.5313 25.9627,19.2683 25.9627,17.7103 L25.9627,6.4273 C25.9627,4.8693 24.7007,3.6063 23.1417,3.6063" id="Fill-3"></path>
                </g>
            </g>
        </g>
    </g>
</svg>