<?xml version="1.0" encoding="UTF-8"?>
<svg width="32px" height="64px" viewBox="0 0 32 64" version="1.1" xmlns="http://www.w3.org/2000/svg" xmlns:xlink="http://www.w3.org/1999/xlink">
    <!-- Generator: Sketch 53.2 (72643) - https://sketchapp.com -->
    <title>btn_scroll_bar_pushed</title>
    <desc>Created with Sketch.</desc>
    <g id="spec" stroke="none" stroke-width="1" fill="none" fill-rule="evenodd">
        <g id="Artboard" transform="translate(-1733.000000, -1052.000000)" fill="#FFFFFF">
            <rect id="btn_scroll_bar_pushed" x="1733" y="1052" width="32" height="64" rx="2"></rect>
        </g>
    </g>
</svg>