<?xml version="1.0" encoding="UTF-8"?>
<svg width="40px" height="40px" viewBox="0 0 40 40" version="1.1" xmlns="http://www.w3.org/2000/svg" xmlns:xlink="http://www.w3.org/1999/xlink">
    <!-- Generator: Sketch 53.2 (72643) - https://sketchapp.com -->
    <title>btn_graph_pushed</title>
    <desc>Created with Sketch.</desc>
    <g id="spec" stroke="none" stroke-width="1" fill="none" fill-rule="evenodd">
        <g id="Artboard" transform="translate(-1336.000000, -273.000000)">
            <g id="btn_graph_pushed" transform="translate(1336.000000, 273.000000)">
                <rect id="Rectangle" fill="#2B2D32" x="0" y="0" width="40" height="40"></rect>
                <rect id="Rectangle" fill="#6699F0" x="17" y="6" width="6" height="28"></rect>
                <rect id="Rectangle-Copy-13" fill="#6699F0" x="28" y="12" width="6" height="22"></rect>
                <rect id="Rectangle-Copy-14" fill="#6699F0" x="6" y="22" width="6" height="12"></rect>
            </g>
        </g>
    </g>
</svg>