<?xml version="1.0" encoding="UTF-8"?>
<svg width="164px" height="48px" viewBox="0 0 164 48" version="1.1" xmlns="http://www.w3.org/2000/svg" xmlns:xlink="http://www.w3.org/1999/xlink">
    <!-- Generator: Sketch 53.2 (72643) - https://sketchapp.com -->
    <title>btn_lamp_on</title>
    <desc>Created with Sketch.</desc>
    <defs>
        <linearGradient x1="0%" y1="40.1234568%" x2="100%" y2="57.4435764%" id="linearGradient-1">
            <stop stop-color="#6699F0" offset="0%"></stop>
            <stop stop-color="#666BF0" offset="100%"></stop>
        </linearGradient>
    </defs>
    <g id="spec" stroke="none" stroke-width="1" fill="none" fill-rule="evenodd">
        <g id="Artboard" transform="translate(-1571.000000, -357.000000)" fill-rule="nonzero">
            <g id="btn_lamp_on" transform="translate(1571.000000, 357.000000)">
                <rect id="Rectangle-Copy-81" fill="#000000" x="0" y="0" width="164" height="48" rx="4"></rect>
                <rect id="Rectangle-Copy-82" fill="url(#linearGradient-1)" x="84" y="8" width="72" height="32" rx="4"></rect>
                <rect id="Rectangle-Copy-83" fill="#2B2D32" x="8" y="8" width="72" height="32" rx="4"></rect>
            </g>
        </g>
    </g>
</svg>